package dojo.drools.webstore.freight

import dojo.drools.webstore.entity.Cart 
import dojo.drools.webstore.entity.CartAmount
import dojo.drools.webstore.entity.DeliveryAddress

global org.slf4j.Logger logger

/** CHALLENGE 1 */

function int itemGroupAmount(int nrItems) {
	return nrItems < 10 ? 1 : (int) nrItems / 10;
}

rule "create cart amount"
when
	$cart : Cart( amount == null)
then
	logger.debug("RULE FIRED: create cart amount");
	$cart.setAmount(new CartAmount($cart.getItems()));
	update($cart)
end

rule "calculate freight price"
when
	$cart : Cart( $items: items, amount != null, !delivery.postalCode.startsWith("13"))
then
	logger.debug("RULE FIRED: calculate freight price");
	$cart.getAmount().setFreightPrice(10.0 * itemGroupAmount($cart.getItemsQuantity()));
end

rule "calculate freight price for postal code starts with 13"
when
	$cart : Cart( $items: items, amount != null, delivery.postalCode.startsWith("13"))
then
	logger.debug("RULE FIRED: calculate freight price for postal code starts with 13");
	$cart.getAmount().setFreightPrice(25.0 * itemGroupAmount($cart.getItemsQuantity()));
end